<svg width="24" height="24" viewBox="0 0 24 24" fill="none" 
    xmlns="http://www.w3.org/2000/svg">
    <path fill-rule="evenodd" clip-rule="evenodd" d="M12 18.7717L6.00766 21.8294C5.63999 22.017 5.2162 21.7035 5.28803 21.297L6.42855 14.8429L1.61113 10.2852C1.30687 9.99737 1.47018 9.48541 1.88493 9.42692L8.55664 8.48598L11.5543 2.59079C11.7396 2.22629 12.2603 2.22629 12.4457 2.59079L15.4433 8.48598L22.115 9.42692C22.5298 9.48541 22.6931 9.99737 22.3888 10.2852L17.5714 14.8429L18.7119 21.297C18.7837 21.7035 18.36 22.017 17.9923 21.8294L12 18.7717Z" fill="#FFBA49"/>
</svg>
